<?xml version="1.0" encoding="utf-8"?>
<!-- Generator: Adobe Illustrator 16.0.0, SVG Export Plug-In . SVG Version: 6.00 Build 0)  -->
<!DOCTYPE svg PUBLIC "-//W3C//DTD SVG 1.1//EN" "http://www.w3.org/Graphics/SVG/1.1/DTD/svg11.dtd">
<svg version="1.1" id="Layer_1" xmlns="http://www.w3.org/2000/svg" xmlns:xlink="http://www.w3.org/1999/xlink" x="0px" y="0px"
	 width="640px" height="101.704px" viewBox="-170 -26.999 640 101.704" enable-background="new -170 -26.999 640 101.704"
	 xml:space="preserve">
<polygon fill="#071146" points="-134.925,3.045 -134.925,-20.363 -125.797,-20.363 -125.797,39.461 -134.925,39.461 
	-134.925,11.568 -160.871,11.568 -160.871,39.461 -170,39.461 -170,-20.363 -160.871,-20.363 -160.871,3.045 "/>
<path fill="#071146" d="M-76.257,1.698v37.762h-8.772v-3.949c-4.067,3.768-7.055,5.113-11.664,5.113
	c-10.48,0-18.165-8.521-18.165-20.09c0-11.304,7.684-19.822,17.896-19.822c4.879,0,8.137,1.522,11.933,5.38V1.698H-76.257z
	 M-105.91,20.535c0,7.176,4.431,12.286,10.483,12.286c6.514,0,10.941-4.933,10.941-12.108S-88.913,8.518-95.333,8.518
	C-101.387,8.518-105.91,13.627-105.91,20.535"/>
<polygon fill="#071146" points="-69.942,1.698 -59.726,1.698 -48.154,23.406 -37.306,1.698 -27.364,1.698 -57.646,60 -67.681,60 
	-52.854,32.374 "/>
<path fill="#071146" d="M-12.355,39.459h-8.768V9.862h-3.164V1.698h3.164v-14.53c0-4.928,0.719-7.979,2.528-10.046
	c1.992-2.511,5.967-4.121,9.945-4.121c1.986,0,3.344,0.263,5.875,1.338v8.884c-3.256-1.614-3.979-1.886-5.607-1.886
	c-3.072,0-3.974,1.794-3.974,7.985V1.698h9.581v8.164h-9.581V39.459z"/>
<path fill="#071146" d="M41.611,20.624c0,11.304-8.855,20.001-20.424,20.001c-11.39,0-20.158-8.878-20.158-20.269
	c0-10.849,9.034-19.643,20.25-19.643C32.756,0.713,41.611,9.412,41.611,20.624 M9.979,20.535c0,7.445,4.428,12.286,11.208,12.286
	c6.958,0,11.479-4.753,11.479-12.108c0-7.354-4.521-12.195-11.388-12.195C14.586,8.518,9.979,13.359,9.979,20.535"/>
<path fill="#071146" d="M116.73-25.922v65.383h-8.766v-3.949c-3.707,3.589-7.137,5.113-11.75,5.113
	c-10.396,0-18.083-8.52-18.083-20.09c0-11.301,7.687-19.822,17.899-19.822c4.794,0,8.134,1.524,11.931,5.382v-32.018H116.73z
	 M87.083,20.446c0,7.265,4.429,12.375,10.485,12.375c6.509,0,10.94-4.931,10.94-12.106c0-7.178-4.431-12.197-10.854-12.197
	C91.6,8.518,87.083,13.629,87.083,20.446"/>
<path fill="#071146" d="M179.379,19.192c3.699-4.134,5.059-5.655,6.688-7.805l5.968,6.099c-1.265,1.795-2.806,3.588-7.147,8.253
	l11.213,13.72h-11.3l-6.055-7.264c-1.633,1.614-2.983,2.78-5.062,4.208c-4.517,3.144-7.598,4.22-12.204,4.22
	c-10.667,0-18.984-7.712-18.984-17.758c0-4.215,1.718-8.252,4.7-11.479c1.807-1.88,1.807-1.88,7.955-6.012l0.721-0.623
	c-3.792-4.038-5.96-8.524-5.96-12.469c0-8.072,5.873-13.634,14.46-13.634c8.316,0,14.371,5.475,14.371,13.005
	c0,5.111-2.439,8.612-10.217,14.53L179.379,19.192z M161.387,11.294c-7.958,5.383-10.127,7.896-10.127,11.387
	c0,5.027,4.792,9.784,9.856,9.784c3.706,0,7.32-2.063,12.112-6.817L161.387,11.294z M163.287-0.184
	c6.054-4.571,6.872-5.562,6.872-8.431c0-3.14-2.355-5.29-5.877-5.29c-3.346,0-5.879,2.241-5.879,5.196
	c0,2.338,0.454,3.233,4.43,7.989L163.287-0.184z"/>
<path fill="#071146" d="M254.132,39.459h-11.116l-17.175-24.483h-1.627v24.483h-9.127v-59.821h10.662
	c7.775,0,12.116,0.984,15.91,3.497c4.43,2.963,7.231,8.433,7.231,14.082c0,8.34-5.333,15.07-13.377,16.771L254.132,39.459z
	 M227.104,7.083c4.068,0,7.056-0.631,9.129-2.064c2.354-1.704,3.801-4.569,3.801-7.715c0-2.868-1.359-5.558-3.617-7.087
	c-2.08-1.432-4.704-2.061-8.95-2.061h-3.25V7.083H227.104z"/>
<path fill="#071146" d="M270.225-25.924V4.838c3.433-2.961,6.237-4.125,10.396-4.125c4.521,0,8.769,1.969,11.028,5.11
	c1.9,2.511,2.529,5.294,2.529,10.493v23.143h-8.767V17.127c0-6.009-2.079-8.612-6.87-8.612c-2.979,0-5.509,1.166-6.775,3.142
	c-1,1.521-1.541,5.02-1.541,9.594v18.208h-8.77v-65.383H270.225z"/>
<path fill="#071146" d="M344.078,20.624c0,11.302-8.854,20.001-20.43,20.001c-11.388,0-20.156-8.878-20.156-20.269
	c0-10.851,9.032-19.643,20.244-19.643C335.224,0.713,344.078,9.412,344.078,20.624 M312.44,20.535
	c0,7.445,4.434,12.286,11.208,12.286c6.959,0,11.483-4.751,11.483-12.108c0-7.354-4.524-12.195-11.396-12.195
	C317.049,8.518,312.44,13.359,312.44,20.535"/>
<path fill="#071146" d="M390.093-25.924v65.383h-8.773v-3.945c-3.704,3.587-7.137,5.111-11.752,5.111
	c-10.392,0-18.074-8.521-18.074-20.09c0-11.304,7.685-19.822,17.896-19.822c4.794,0,8.135,1.522,11.931,5.38v-32.018H390.093z
	 M360.44,20.446c0,7.26,4.434,12.375,10.483,12.375c6.512,0,10.938-4.931,10.938-12.108c0-7.176-4.426-12.195-10.842-12.195
	C364.957,8.518,360.44,13.627,360.44,20.446"/>
<path fill="#071146" d="M408.619,22.682c0.454,6.192,4.25,10.139,9.858,10.139c4.427,0,6.775-1.703,10.305-7.354l7.418,4.127
	c-1.997,3.318-3.173,4.84-5.16,6.458c-3.342,2.96-8.046,4.57-12.837,4.57c-11.3,0-18.8-7.984-18.8-19.912
	c0-12.022,7.322-20,18.352-20c6.235,0,12.022,2.872,15.002,7.443c1.991,3.14,3.075,7.533,3.075,12.468v2.059h-27.213V22.682z
	 M426.792,15.6c-1.173-4.482-4.342-6.995-8.855-6.995c-4.246,0-7.686,2.691-8.771,6.995H426.792z"/>
<path fill="#071146" d="M460.327,12.014c-1.175-2.422-2.528-3.499-4.337-3.499c-1.627,0-2.89,1.166-2.89,2.691
	c0,1.614,0.991,2.42,5.059,4.304C467.562,19.815,470,22.417,470,27.888c0,7.085-5.962,12.736-13.556,12.736
	c-6.421,0-10.941-3.142-13.559-9.332l7.504-3.406c2.079,3.769,3.523,4.931,6.143,4.931c2.714,0,4.521-1.614,4.521-4.035
	s-0.544-2.868-8.771-6.907c-5.604-2.778-7.407-5.107-7.407-9.774c0-6.549,5.065-11.393,11.837-11.393
	c4.976,0,8.406,2.334,10.851,7.445L460.327,12.014z"/>
<polygon fill="#071146" points="53.857,57.382 53.857,62.125 61.584,62.125 61.584,64.937 53.857,64.937 53.857,71.508 
	61.82,71.508 61.82,74.32 50.838,74.32 50.838,54.572 61.82,54.572 61.82,57.382 "/>
<path fill="#071146" d="M70.113,65.259c-0.387-0.804-0.834-1.156-1.433-1.156c-0.537,0-0.951,0.387-0.951,0.887
	c0,0.536,0.324,0.799,1.667,1.423c3.104,1.42,3.911,2.281,3.911,4.089c0,2.341-1.971,4.204-4.475,4.204
	c-2.123,0-3.609-1.033-4.48-3.078l2.481-1.124c0.685,1.245,1.159,1.631,2.03,1.631c0.89,0,1.489-0.535,1.489-1.339
	c0-0.796-0.177-0.944-2.895-2.277c-1.85-0.914-2.445-1.687-2.445-3.226c0-2.167,1.666-3.763,3.911-3.763
	c1.638,0,2.771,0.771,3.577,2.459L70.113,65.259z"/>
<polygon fill="#071146" points="79.298,74.32 76.406,74.32 76.406,64.55 75.182,64.55 75.182,61.857 76.406,61.857 76.406,57.29 
	79.298,57.29 79.298,61.857 81.568,61.857 81.568,64.55 79.298,64.55 "/>
<path fill="#071146" d="M95.793,61.857V74.32h-2.895v-1.301c-1.337,1.237-2.325,1.684-3.848,1.684c-3.46,0-5.997-2.811-5.997-6.633
	c0-3.731,2.535-6.541,5.914-6.541c1.606,0,2.681,0.501,3.931,1.779v-1.451H95.793z M86.006,68.07c0,2.368,1.468,4.06,3.465,4.06
	c2.15,0,3.609-1.633,3.609-4.002c0-2.364-1.462-4.025-3.583-4.025C87.5,64.104,86.006,65.79,86.006,68.07"/>
<path fill="#071146" d="M102.356,63.308c1.252-1.28,2.355-1.779,3.94-1.779c3.368,0,5.907,2.81,5.907,6.541
	c0,3.822-2.537,6.635-5.965,6.635c-1.525,0-2.658-0.504-3.88-1.686v1.301h-2.897V52.733h2.897v10.575H102.356z M102.177,68.097
	c0,2.403,1.459,4.029,3.58,4.029c2.001,0,3.488-1.688,3.488-3.94c0-2.367-1.461-4.086-3.46-4.086
	C103.636,64.104,102.177,65.734,102.177,68.097"/>
<rect x="115.271" y="52.735" fill="#071146" width="2.893" height="21.585"/>
<path fill="#071146" d="M125.204,56.672c0,1.033-0.859,1.896-1.877,1.896c-1.077,0-1.909-0.861-1.909-1.896
	c0-1.009,0.865-1.863,1.873-1.863C124.372,54.81,125.204,55.636,125.204,56.672 M124.758,74.32h-2.897V61.857h2.897V74.32z"/>
<path fill="#071146" d="M133.321,65.259c-0.389-0.804-0.838-1.156-1.429-1.156c-0.539,0-0.956,0.387-0.956,0.887
	c0,0.536,0.324,0.799,1.671,1.423c3.101,1.42,3.91,2.281,3.91,4.089c0,2.341-1.972,4.204-4.478,4.204
	c-2.121,0-3.609-1.033-4.478-3.078l2.483-1.124c0.683,1.245,1.161,1.631,2.023,1.631c0.896,0,1.49-0.535,1.49-1.339
	c0-0.796-0.177-0.944-2.891-2.277c-1.85-0.914-2.447-1.687-2.447-3.226c0-2.167,1.671-3.763,3.913-3.763
	c1.639,0,2.771,0.771,3.578,2.459L133.321,65.259z"/>
<path fill="#071146" d="M142,52.735v10.149c1.135-0.972,2.062-1.357,3.432-1.357c1.49,0,2.893,0.651,3.638,1.689
	c0.625,0.832,0.84,1.75,0.84,3.457v7.646h-2.901v-7.375c0-1.979-0.685-2.843-2.266-2.843c-0.979,0-1.82,0.387-2.238,1.038
	c-0.326,0.504-0.505,1.654-0.505,3.164v6.014h-2.895V52.735H142z"/>
<path fill="#071146" d="M156.022,68.78c0.147,2.046,1.401,3.347,3.252,3.347c1.465,0,2.233-0.56,3.408-2.427l2.443,1.36
	c-0.664,1.099-1.052,1.603-1.706,2.134c-1.107,0.978-2.652,1.511-4.237,1.511c-3.725,0-6.204-2.638-6.204-6.577
	c0-3.965,2.416-6.599,6.059-6.599c2.061,0,3.971,0.947,4.95,2.457c0.658,1.034,1.022,2.486,1.022,4.113v0.681H156.022z
	 M162.018,66.445c-0.385-1.477-1.431-2.312-2.923-2.312c-1.403,0-2.533,0.887-2.89,2.312H162.018z"/>
<path fill="#071146" d="M180.31,52.735V74.32h-2.894v-1.301c-1.226,1.182-2.36,1.686-3.881,1.686c-3.434,0-5.969-2.811-5.969-6.633
	c0-3.731,2.533-6.543,5.91-6.543c1.579,0,2.686,0.499,3.939,1.779V52.735H180.31z M170.521,68.044c0,2.396,1.462,4.088,3.465,4.088
	c2.147,0,3.61-1.631,3.61-4.004c0-2.362-1.465-4.025-3.581-4.025C172.008,64.104,170.521,65.79,170.521,68.044"/>
<polygon fill="#071146" points="193.639,57.361 195.278,54.572 200.083,54.572 200.083,74.318 197.07,74.318 197.07,57.361 "/>
<path fill="#071146" d="M208.346,73.372l4.747-6.424c-0.506,0.059-0.717,0.09-1.077,0.09c-3.252,0-5.937-2.813-5.937-6.188
	c0-3.645,2.982-6.604,6.624-6.604c3.638,0,6.746,2.962,6.746,6.425c0,1.569-0.66,3.198-1.941,4.947l-6.95,9.384L208.346,73.372z
	 M209.006,60.612c0,2.096,1.669,3.789,3.761,3.789c2.058,0,3.758-1.693,3.758-3.733c0-2.072-1.7-3.731-3.758-3.731
	C210.703,56.936,209.006,58.622,209.006,60.612"/>
<path fill="#071146" d="M235.582,71.508v2.812h-13.366l6.921-8.287c2.779-3.348,3.496-4.562,3.496-5.807
	c0-1.839-1.494-3.252-3.404-3.252c-1.134,0-2.18,0.5-2.777,1.357c-0.383,0.566-0.533,1.066-0.682,2.162h-2.987
	c0.213-1.685,0.483-2.575,1.169-3.582c1.132-1.716,2.948-2.664,5.189-2.664c3.646,0,6.417,2.604,6.417,5.979
	c0,2.128-0.834,3.642-4.267,7.67l-3.1,3.611H235.582z"/>
<path fill="#071146" d="M253.416,68.804v2.703H251.3v2.811h-3.012v-2.811h-9.76L251.3,53.117v15.688H253.416z M248.288,62.206
	l-4.594,6.599h4.594V62.206z"/>
<path fill="#071146" d="M59.606,1.698v3.407c3.253-3.407,5.333-4.486,8.766-4.486c2.713,0,4.339,0.542,7.324,2.334l-4.068,7.983
	c-1.991-1.432-3.072-1.884-4.881-1.884c-4.881,0-7.141,3.412-7.141,10.854v19.553h-8.768V1.698H59.606z"/>
</svg>
